^C:\USERS\DANKM\ONEDRIVE\DESKTOP\SCHOOL\SEMESTER 2\C++\WK3\SLNCARDGAME\PRJCARDGAME\DEBUG\MAIN.OBJ
C:\USERS\DANKM\ONEDRIVE\DESKTOP\SCHOOL\SEMESTER 2\C++\WK3\SLNCARDGAME\DEBUG\PRJCARDGAME.EXE
C:\USERS\DANKM\ONEDRIVE\DESKTOP\SCHOOL\SEMESTER 2\C++\WK3\SLNCARDGAME\PRJCARDGAME\DEBUG\PRJCARDGAME.ILK
C:\USERS\DANKM\ONEDRIVE\DESKTOP\SCHOOL\SEMESTER 2\C++\WK3\SLNCARDGAME\DEBUG\PRJCARDGAME.PDB
